<?xml version="1.0" encoding="UTF-8" standalone="no"?>
<svg width="82px" height="73px" viewBox="0 0 82 73" version="1.1" xmlns="http://www.w3.org/2000/svg" xmlns:xlink="http://www.w3.org/1999/xlink">
    <!-- Generator: Sketch 3.7.1 (28215) - http://www.bohemiancoding.com/sketch -->
    <title>Logo</title>
    <desc>Created with Sketch.</desc>
    <defs>
        <polygon id="path-1" points="0.06 71.94 80.4 71.94 80.4 0 0.06 0"></polygon>
    </defs>
    <g id="Page-1" stroke="none" stroke-width="1" fill="none" fill-rule="evenodd">
        <g id="Logo">
            <g id="Group" transform="translate(1.000000, 1.000000)">
                <mask id="mask-2" fill="white">
                    <use xlink:href="#path-1"></use>
                </mask>
                <g id="Clip-2"></g>
                <path d="M71.4,44.999 C74.509,44.999 77.248,43.423 78.865,41.029 C79.835,39.594 80.4,37.862 80.4,35.999 C80.4,34.133 79.832,32.398 78.859,30.96 C77.242,28.569 74.506,26.999 71.4,26.999 L40.2,26.999 C35.226,26.999 31.2,31.024 31.2,35.999 C31.2,40.968 35.226,44.999 40.2,44.999 L71.4,44.999 L71.4,44.999 Z M67.612,53.999 L40.2,53.999 C30.26,53.999 22.201,45.939 22.201,35.999 C22.201,33.884 22.566,31.853 23.238,29.967 L23.258,29.973 C23.334,29.744 23.375,29.501 23.375,29.249 C23.375,28.007 22.367,26.999 21.125,26.999 L5.121,26.999 C4.277,26.999 3.539,27.465 3.154,28.15 L1.541,30.96 C0.568,32.398 0,34.133 0,35.999 C0,37.862 0.564,39.594 1.535,41.029 L16.506,66.936 L16.512,66.936 C17.27,68.501 18.488,69.86 20.103,70.792 C21.717,71.724 23.498,72.104 25.225,71.976 L25.225,71.978 L55.177,71.978 L55.177,71.976 C56.901,72.104 58.683,71.724 60.297,70.792 C61.911,69.86 63.13,68.501 63.889,66.936 L63.895,66.936 L69.443,57.321 C69.631,56.996 69.76,56.63 69.76,56.228 C69.76,55.021 68.805,54.055 67.612,53.999 L67.612,53.999 Z M67.612,18.001 L12.787,18.001 C11.596,17.944 10.641,16.977 10.641,15.771 C10.641,15.37 10.769,15.003 10.957,14.679 L16.506,5.063 L16.512,5.063 C17.27,3.499 18.488,2.14 20.103,1.208 C21.717,0.276 23.498,-0.104 25.225,0.024 L25.225,0.021 L55.177,0.021 L55.177,0.024 C56.901,-0.104 58.683,0.276 60.297,1.208 C61.911,2.14 63.13,3.499 63.889,5.063 L63.895,5.063 L69.443,14.679 C69.631,15.003 69.76,15.37 69.76,15.771 C69.76,16.977 68.805,17.944 67.612,18.001 L67.612,18.001 Z" id="Fill-1" fill="#FFFFFF" mask="url(#mask-2)"></path>
            </g>
        </g>
    </g>
</svg>